
Log Entry : 04/05/2016 11:36.20.0624
  :
  :< ERROR [MENU.ASPX.CS]:> El procedimiento o la funci?n 'ENVIOAPP_SPS_MENU_PERFIL' esperaba el par?metro '@ID_PERFIL', que no se ha especificado.
-------------------------------

Log Entry : 04/05/2016 11:42.51.9397
  :
  :Error - Ventana Aplicaciones.aspx.cs: Referencia a objeto no establecida como instancia de un objeto.
-------------------------------

Log Entry : 04/05/2016 14:23.48.7898
  :
  :< ERROR [MENU.ASPX.CS]:> El procedimiento o la funci?n 'ENVIOAPP_SPS_MENU_PERFIL' esperaba el par?metro '@ID_PERFIL', que no se ha especificado.
-------------------------------

Log Entry : 04/05/2016 16:33.53.7365
  :
  :< ERROR [MENU.ASPX.CS]:> El procedimiento o la funci?n 'ENVIOAPP_SPS_MENU_PERFIL' esperaba el par?metro '@ID_PERFIL', que no se ha especificado.
-------------------------------

Log Entry : 04/05/2016 17:05.43.8900
  :
  :< ERROR [MENU.ASPX.CS]:> El procedimiento o la funci?n 'ENVIOAPP_SPS_MENU_PERFIL' esperaba el par?metro '@ID_PERFIL', que no se ha especificado.
-------------------------------

Log Entry : 04/05/2016 17:06.47.5990
  :
  :< ERROR [MENU.ASPX.CS]:> El procedimiento o la funci?n 'ENVIOAPP_SPS_MENU_PERFIL' esperaba el par?metro '@ID_PERFIL', que no se ha especificado.
-------------------------------
