
Log Entry : 12/27/2015 23:37.59.1645
  :
  :< ERROR [Default.aspx.CS]:> Subproceso anulado.
-------------------------------

Log Entry : 12/27/2015 23:58.59.3231
  :
  :< ERROR [Default.aspx.CS]:> Subproceso anulado.
-------------------------------
