
Log Entry : 04/06/2016 10:57.07.7015
  :
  :Error - Ventana Aplicaciones.aspx.cs: Referencia a objeto no establecida como instancia de un objeto.
-------------------------------

Log Entry : 04/06/2016 11:24.15.2981
  :
  :Error - Ventana Aplicaciones.aspx.cs: Referencia a objeto no establecida como instancia de un objeto.
-------------------------------

Log Entry : 04/06/2016 12:35.26.8078
  :
  :< ERROR [MENU.ASPX.CS]:> El procedimiento o la funci?n 'ENVIOAPP_SPS_MENU_PERFIL' esperaba el par?metro '@ID_PERFIL', que no se ha especificado.
-------------------------------

Log Entry : 04/06/2016 12:35.26.8128
  :
  :< ERROR [MENU.ASPX.CS]:> El procedimiento o la funci?n 'ENVIOAPP_SPS_MENU_PERFIL' esperaba el par?metro '@ID_PERFIL', que no se ha especificado.
-------------------------------

Log Entry : 04/06/2016 12:35.26.8178
  :
  :< ERROR [MENU.ASPX.CS]:> El procedimiento o la funci?n 'ENVIOAPP_SPS_MENU_PERFIL' esperaba el par?metro '@ID_PERFIL', que no se ha especificado.
-------------------------------

Log Entry : 04/06/2016 12:35.26.8218
  :
  :< ERROR [MENU.ASPX.CS]:> El procedimiento o la funci?n 'ENVIOAPP_SPS_MENU_PERFIL' esperaba el par?metro '@ID_PERFIL', que no se ha especificado.
-------------------------------

Log Entry : 04/06/2016 12:35.26.8388
  :
  :< ERROR [MENU.ASPX.CS]:> El procedimiento o la funci?n 'ENVIOAPP_SPS_MENU_PERFIL' esperaba el par?metro '@ID_PERFIL', que no se ha especificado.
-------------------------------

Log Entry : 04/06/2016 15:55.51.7996
  :
  :< ERROR [MENU.ASPX.CS]:> El procedimiento o la funci?n 'ENVIOAPP_SPS_MENU_PERFIL' esperaba el par?metro '@ID_PERFIL', que no se ha especificado.
-------------------------------

Log Entry : 04/06/2016 16:35.08.7859
  :
  :Error - Ventana Aplicaciones.aspx.cs: Referencia a objeto no establecida como instancia de un objeto.
-------------------------------

Log Entry : 04/06/2016 17:31.18.6132
  :
  :< ERROR [MENU.ASPX.CS]:> El procedimiento o la funci?n 'ENVIOAPP_SPS_MENU_PERFIL' esperaba el par?metro '@ID_PERFIL', que no se ha especificado.
-------------------------------

Log Entry : 04/06/2016 18:07.00.3390
  :
  :< ERROR [MENU.ASPX.CS]:> El procedimiento o la funci?n 'ENVIOAPP_SPS_MENU_PERFIL' esperaba el par?metro '@ID_PERFIL', que no se ha especificado.
-------------------------------

Log Entry : 04/06/2016 18:35.09.6238
  :
  :< ERROR [MENU.ASPX.CS]:> El procedimiento o la funci?n 'ENVIOAPP_SPS_MENU_PERFIL' esperaba el par?metro '@ID_PERFIL', que no se ha especificado.
-------------------------------
