
Log Entry : 01/28/2016 14:45.52.4012
  :
  :< ERROR [MENU.ASPX.CS]:> Procedure or Function 'ENVIOAPP_SPS_MENU_PERFIL' expects parameter '@ID_PERFIL', which was not supplied.
-------------------------------

Log Entry : 01/28/2016 22:49.22.3636
  :
  :numero: 51977532664
-------------------------------

Log Entry : 01/28/2016 22:49.25.1489
  :
  :numero: 51977532664
-------------------------------

Log Entry : 01/28/2016 22:49.30.9594
  :
  :durmio
-------------------------------

Log Entry : 01/28/2016 23:19.24.4962
  :
  :numero: 51977532664
-------------------------------

Log Entry : 01/28/2016 23:19.24.4972
  :
  :numero: 51977532664
-------------------------------

Log Entry : 01/28/2016 23:19.24.4982
  :
  :durmio
-------------------------------
