
Log Entry : 01/07/2016 14:24.27.8764
  :
  :< ERROR [MENU.ASPX.CS]:> Procedure or Function 'ENVIOAPP_SPS_MENU_PERFIL' expects parameter '@ID_PERFIL', which was not supplied.
-------------------------------

Log Entry : 01/07/2016 15:09.42.6923
  :
  :Error - Ventana EnvioApp.aspx.cs: La columna 'VersionSermovil' no pertenece a la tabla .
-------------------------------

Log Entry : 01/07/2016 15:12.43.2255
  :
  :Error - Ventana EnvioApp.aspx.cs: La columna 'VersionSerMovil' no pertenece a la tabla .
-------------------------------

Log Entry : 01/07/2016 15:29.06.7723
  :
  :Error - Ventana EnvioApp.aspx.cs: Referencia a objeto no establecida como instancia de un objeto.
-------------------------------

Log Entry : 01/07/2016 15:46.04.2883
  :
  :Error - Ventana EnvioApp.aspx.cs: Referencia a objeto no establecida como instancia de un objeto.
-------------------------------

Log Entry : 01/07/2016 15:50.00.6469
  :
  :Error - Ventana EnvioApp.aspx.cs: Referencia a objeto no establecida como instancia de un objeto.
-------------------------------

Log Entry : 01/07/2016 17:08.19.8370
  :
  :Error - Ventana EnvioApp.aspx.cs: Referencia a objeto no establecida como instancia de un objeto.
-------------------------------

Log Entry : 01/07/2016 17:15.47.9787
  :
  :Error - Ventana EnvioApp.aspx.cs: Referencia a objeto no establecida como instancia de un objeto.
-------------------------------

Log Entry : 01/07/2016 19:58.10.6688
  :
  :Error - Ventana EnvioApp.aspx.cs: Referencia a objeto no establecida como instancia de un objeto.
-------------------------------
