
Log Entry : 04/26/2016 08:11.45.6363
  :
  :Error en DTSX: --> "component "Excel Source" (1)" failed validation and returned validation status "VS_NEEDSNEWMETADATA".

-------------------------------

Log Entry : 04/26/2016 08:11.45.6524
  :
  :Error en DTSX: --> One or more component failed validation.

-------------------------------

Log Entry : 04/26/2016 08:11.45.6534
  :
  :Error en DTSX: --> There were errors during task validation.

-------------------------------

Log Entry : 04/26/2016 08:16.57.9297
  :
  :Error en DTSX: --> "component "Excel Source" (1)" failed validation and returned validation status "VS_NEEDSNEWMETADATA".

-------------------------------

Log Entry : 04/26/2016 08:16.57.9317
  :
  :Error en DTSX: --> One or more component failed validation.

-------------------------------

Log Entry : 04/26/2016 08:16.57.9367
  :
  :Error en DTSX: --> There were errors during task validation.

-------------------------------

Log Entry : 04/26/2016 10:46.26.6135
  :
  :Error en DTSX: --> "component "Excel Source" (1)" failed validation and returned validation status "VS_NEEDSNEWMETADATA".

-------------------------------

Log Entry : 04/26/2016 10:46.30.7329
  :
  :Error en DTSX: --> One or more component failed validation.

-------------------------------

Log Entry : 04/26/2016 10:46.40.2558
  :
  :Error en DTSX: --> There were errors during task validation.

-------------------------------

Log Entry : 04/26/2016 11:00.05.4079
  :
  :Error en DTSX: --> "component "Excel Source" (1)" failed validation and returned validation status "VS_NEEDSNEWMETADATA".

-------------------------------

Log Entry : 04/26/2016 11:00.05.4589
  :
  :Error en DTSX: --> One or more component failed validation.

-------------------------------

Log Entry : 04/26/2016 11:00.05.4609
  :
  :Error en DTSX: --> There were errors during task validation.

-------------------------------
