
Log Entry : 09/05/2016 11:49.27.5271
  :
  :Error - Ventana Aplicaciones.aspx.cs: Object reference not set to an instance of an object.
-------------------------------

Log Entry : 09/05/2016 11:55.49.1613
  :
  :< ERROR [MENU.ASPX.CS]:> Timeout expired.  The timeout period elapsed prior to obtaining a connection from the pool.  This may have occurred because all pooled connections were in use and max pool size was reached.
-------------------------------
