
Log Entry : 04/11/2016 00:20.53.3562
  :
  :< ERROR [MENU.ASPX.CS]:> El procedimiento o la funci?n 'ENVIOAPP_SPS_MENU_PERFIL' esperaba el par?metro '@ID_PERFIL', que no se ha especificado.
-------------------------------

Log Entry : 04/11/2016 00:20.54.1823
  :
  :< ERROR [MENU.ASPX.CS]:> El procedimiento o la funci?n 'ENVIOAPP_SPS_MENU_PERFIL' esperaba el par?metro '@ID_PERFIL', que no se ha especificado.
-------------------------------

Log Entry : 04/11/2016 00:36.51.4921
  :
  :< ERROR [MENU.ASPX.CS]:> El procedimiento o la funci?n 'ENVIOAPP_SPS_MENU_PERFIL' esperaba el par?metro '@ID_PERFIL', que no se ha especificado.
-------------------------------

Log Entry : 04/11/2016 00:36.51.5001
  :
  :< ERROR [MENU.ASPX.CS]:> El procedimiento o la funci?n 'ENVIOAPP_SPS_MENU_PERFIL' esperaba el par?metro '@ID_PERFIL', que no se ha especificado.
-------------------------------

Log Entry : 04/11/2016 00:36.51.5461
  :
  :< ERROR [MENU.ASPX.CS]:> El procedimiento o la funci?n 'ENVIOAPP_SPS_MENU_PERFIL' esperaba el par?metro '@ID_PERFIL', que no se ha especificado.
-------------------------------

Log Entry : 04/11/2016 01:07.39.3310
  :
  :< ERROR [MENU.ASPX.CS]:> El procedimiento o la funci?n 'ENVIOAPP_SPS_MENU_PERFIL' esperaba el par?metro '@ID_PERFIL', que no se ha especificado.
-------------------------------

Log Entry : 04/11/2016 01:07.39.4870
  :
  :< ERROR [MENU.ASPX.CS]:> El procedimiento o la funci?n 'ENVIOAPP_SPS_MENU_PERFIL' esperaba el par?metro '@ID_PERFIL', que no se ha especificado.
-------------------------------

Log Entry : 04/11/2016 01:14.48.7913
  :
  :< ERROR [MENU.ASPX.CS]:> El procedimiento o la funci?n 'ENVIOAPP_SPS_MENU_PERFIL' esperaba el par?metro '@ID_PERFIL', que no se ha especificado.
-------------------------------

Log Entry : 04/11/2016 01:14.48.8693
  :
  :< ERROR [MENU.ASPX.CS]:> El procedimiento o la funci?n 'ENVIOAPP_SPS_MENU_PERFIL' esperaba el par?metro '@ID_PERFIL', que no se ha especificado.
-------------------------------

Log Entry : 04/11/2016 01:14.49.3373
  :
  :< ERROR [MENU.ASPX.CS]:> El procedimiento o la funci?n 'ENVIOAPP_SPS_MENU_PERFIL' esperaba el par?metro '@ID_PERFIL', que no se ha especificado.
-------------------------------

Log Entry : 04/11/2016 01:14.50.1797
  :
  :< ERROR [MENU.ASPX.CS]:> El procedimiento o la funci?n 'ENVIOAPP_SPS_MENU_PERFIL' esperaba el par?metro '@ID_PERFIL', que no se ha especificado.
-------------------------------

Log Entry : 04/11/2016 01:14.50.3513
  :
  :< ERROR [MENU.ASPX.CS]:> El procedimiento o la funci?n 'ENVIOAPP_SPS_MENU_PERFIL' esperaba el par?metro '@ID_PERFIL', que no se ha especificado.
-------------------------------

Log Entry : 04/11/2016 01:22.01.1275
  :
  :< ERROR [MENU.ASPX.CS]:> El procedimiento o la funci?n 'ENVIOAPP_SPS_MENU_PERFIL' esperaba el par?metro '@ID_PERFIL', que no se ha especificado.
-------------------------------

Log Entry : 04/11/2016 01:22.01.3185
  :
  :< ERROR [MENU.ASPX.CS]:> El procedimiento o la funci?n 'ENVIOAPP_SPS_MENU_PERFIL' esperaba el par?metro '@ID_PERFIL', que no se ha especificado.
-------------------------------

Log Entry : 04/11/2016 01:22.01.4735
  :
  :< ERROR [MENU.ASPX.CS]:> El procedimiento o la funci?n 'ENVIOAPP_SPS_MENU_PERFIL' esperaba el par?metro '@ID_PERFIL', que no se ha especificado.
-------------------------------

Log Entry : 04/11/2016 03:05.16.4155
  :
  :< ERROR [MENU.ASPX.CS]:> El procedimiento o la funci?n 'ENVIOAPP_SPS_MENU_PERFIL' esperaba el par?metro '@ID_PERFIL', que no se ha especificado.
-------------------------------

Log Entry : 04/11/2016 03:05.16.4415
  :
  :< ERROR [MENU.ASPX.CS]:> El procedimiento o la funci?n 'ENVIOAPP_SPS_MENU_PERFIL' esperaba el par?metro '@ID_PERFIL', que no se ha especificado.
-------------------------------

Log Entry : 04/11/2016 03:05.16.4475
  :
  :< ERROR [MENU.ASPX.CS]:> El procedimiento o la funci?n 'ENVIOAPP_SPS_MENU_PERFIL' esperaba el par?metro '@ID_PERFIL', que no se ha especificado.
-------------------------------

Log Entry : 04/11/2016 03:05.16.4785
  :
  :< ERROR [MENU.ASPX.CS]:> El procedimiento o la funci?n 'ENVIOAPP_SPS_MENU_PERFIL' esperaba el par?metro '@ID_PERFIL', que no se ha especificado.
-------------------------------

Log Entry : 04/11/2016 03:05.16.4835
  :
  :< ERROR [MENU.ASPX.CS]:> El procedimiento o la funci?n 'ENVIOAPP_SPS_MENU_PERFIL' esperaba el par?metro '@ID_PERFIL', que no se ha especificado.
-------------------------------

Log Entry : 04/11/2016 03:25.26.5357
  :
  :< ERROR [MENU.ASPX.CS]:> El procedimiento o la funci?n 'ENVIOAPP_SPS_MENU_PERFIL' esperaba el par?metro '@ID_PERFIL', que no se ha especificado.
-------------------------------

Log Entry : 04/11/2016 03:25.26.5637
  :
  :< ERROR [MENU.ASPX.CS]:> El procedimiento o la funci?n 'ENVIOAPP_SPS_MENU_PERFIL' esperaba el par?metro '@ID_PERFIL', que no se ha especificado.
-------------------------------

Log Entry : 04/11/2016 03:25.26.5747
  :
  :< ERROR [MENU.ASPX.CS]:> El procedimiento o la funci?n 'ENVIOAPP_SPS_MENU_PERFIL' esperaba el par?metro '@ID_PERFIL', que no se ha especificado.
-------------------------------

Log Entry : 04/11/2016 03:25.26.5977
  :
  :< ERROR [MENU.ASPX.CS]:> El procedimiento o la funci?n 'ENVIOAPP_SPS_MENU_PERFIL' esperaba el par?metro '@ID_PERFIL', que no se ha especificado.
-------------------------------

Log Entry : 04/11/2016 03:38.48.0145
  :
  :< ERROR [MENU.ASPX.CS]:> El procedimiento o la funci?n 'ENVIOAPP_SPS_MENU_PERFIL' esperaba el par?metro '@ID_PERFIL', que no se ha especificado.
-------------------------------

Log Entry : 04/11/2016 03:38.48.0535
  :
  :< ERROR [MENU.ASPX.CS]:> El procedimiento o la funci?n 'ENVIOAPP_SPS_MENU_PERFIL' esperaba el par?metro '@ID_PERFIL', que no se ha especificado.
-------------------------------

Log Entry : 04/11/2016 03:38.48.0695
  :
  :< ERROR [MENU.ASPX.CS]:> El procedimiento o la funci?n 'ENVIOAPP_SPS_MENU_PERFIL' esperaba el par?metro '@ID_PERFIL', que no se ha especificado.
-------------------------------

Log Entry : 04/11/2016 03:53.21.7705
  :
  :< ERROR [MENU.ASPX.CS]:> El procedimiento o la funci?n 'ENVIOAPP_SPS_MENU_PERFIL' esperaba el par?metro '@ID_PERFIL', que no se ha especificado.
-------------------------------

Log Entry : 04/11/2016 03:53.21.8105
  :
  :< ERROR [MENU.ASPX.CS]:> El procedimiento o la funci?n 'ENVIOAPP_SPS_MENU_PERFIL' esperaba el par?metro '@ID_PERFIL', que no se ha especificado.
-------------------------------

Log Entry : 04/11/2016 03:58.22.1197
  :
  :< ERROR [MENU.ASPX.CS]:> El procedimiento o la funci?n 'ENVIOAPP_SPS_MENU_PERFIL' esperaba el par?metro '@ID_PERFIL', que no se ha especificado.
-------------------------------

Log Entry : 04/11/2016 03:58.22.1947
  :
  :< ERROR [MENU.ASPX.CS]:> El procedimiento o la funci?n 'ENVIOAPP_SPS_MENU_PERFIL' esperaba el par?metro '@ID_PERFIL', que no se ha especificado.
-------------------------------

Log Entry : 04/11/2016 03:58.26.2719
  :
  :< ERROR [MENU.ASPX.CS]:> El procedimiento o la funci?n 'ENVIOAPP_SPS_MENU_PERFIL' esperaba el par?metro '@ID_PERFIL', que no se ha especificado.
-------------------------------

Log Entry : 04/11/2016 03:58.29.4451
  :
  :< ERROR [MENU.ASPX.CS]:> El procedimiento o la funci?n 'ENVIOAPP_SPS_MENU_PERFIL' esperaba el par?metro '@ID_PERFIL', que no se ha especificado.
-------------------------------

Log Entry : 04/11/2016 10:15.44.6408
  :
  :< ERROR [MENU.ASPX.CS]:> El procedimiento o la funci?n 'ENVIOAPP_SPS_MENU_PERFIL' esperaba el par?metro '@ID_PERFIL', que no se ha especificado.
-------------------------------

Log Entry : 04/11/2016 10:43.46.0794
  :
  :< ERROR [MENU.ASPX.CS]:> El procedimiento o la funci?n 'ENVIOAPP_SPS_MENU_PERFIL' esperaba el par?metro '@ID_PERFIL', que no se ha especificado.
-------------------------------

Log Entry : 04/11/2016 10:43.46.0834
  :
  :< ERROR [MENU.ASPX.CS]:> El procedimiento o la funci?n 'ENVIOAPP_SPS_MENU_PERFIL' esperaba el par?metro '@ID_PERFIL', que no se ha especificado.
-------------------------------

Log Entry : 04/11/2016 10:43.46.0874
  :
  :< ERROR [MENU.ASPX.CS]:> El procedimiento o la funci?n 'ENVIOAPP_SPS_MENU_PERFIL' esperaba el par?metro '@ID_PERFIL', que no se ha especificado.
-------------------------------

Log Entry : 04/11/2016 10:43.46.0914
  :
  :< ERROR [MENU.ASPX.CS]:> El procedimiento o la funci?n 'ENVIOAPP_SPS_MENU_PERFIL' esperaba el par?metro '@ID_PERFIL', que no se ha especificado.
-------------------------------

Log Entry : 04/11/2016 10:43.46.1034
  :
  :< ERROR [MENU.ASPX.CS]:> El procedimiento o la funci?n 'ENVIOAPP_SPS_MENU_PERFIL' esperaba el par?metro '@ID_PERFIL', que no se ha especificado.
-------------------------------

Log Entry : 04/11/2016 11:08.32.3167
  :
  :< ERROR [MENU.ASPX.CS]:> El procedimiento o la funci?n 'ENVIOAPP_SPS_MENU_PERFIL' esperaba el par?metro '@ID_PERFIL', que no se ha especificado.
-------------------------------

Log Entry : 04/11/2016 11:08.32.3207
  :
  :< ERROR [MENU.ASPX.CS]:> El procedimiento o la funci?n 'ENVIOAPP_SPS_MENU_PERFIL' esperaba el par?metro '@ID_PERFIL', que no se ha especificado.
-------------------------------

Log Entry : 04/11/2016 11:08.32.3277
  :
  :< ERROR [MENU.ASPX.CS]:> El procedimiento o la funci?n 'ENVIOAPP_SPS_MENU_PERFIL' esperaba el par?metro '@ID_PERFIL', que no se ha especificado.
-------------------------------

Log Entry : 04/11/2016 11:08.32.3327
  :
  :< ERROR [MENU.ASPX.CS]:> El procedimiento o la funci?n 'ENVIOAPP_SPS_MENU_PERFIL' esperaba el par?metro '@ID_PERFIL', que no se ha especificado.
-------------------------------

Log Entry : 04/11/2016 11:08.32.3397
  :
  :< ERROR [MENU.ASPX.CS]:> El procedimiento o la funci?n 'ENVIOAPP_SPS_MENU_PERFIL' esperaba el par?metro '@ID_PERFIL', que no se ha especificado.
-------------------------------

Log Entry : 04/11/2016 11:08.32.3467
  :
  :< ERROR [MENU.ASPX.CS]:> El procedimiento o la funci?n 'ENVIOAPP_SPS_MENU_PERFIL' esperaba el par?metro '@ID_PERFIL', que no se ha especificado.
-------------------------------

Log Entry : 04/11/2016 11:08.32.3567
  :
  :< ERROR [MENU.ASPX.CS]:> El procedimiento o la funci?n 'ENVIOAPP_SPS_MENU_PERFIL' esperaba el par?metro '@ID_PERFIL', que no se ha especificado.
-------------------------------

Log Entry : 04/11/2016 11:08.32.3607
  :
  :< ERROR [MENU.ASPX.CS]:> El procedimiento o la funci?n 'ENVIOAPP_SPS_MENU_PERFIL' esperaba el par?metro '@ID_PERFIL', que no se ha especificado.
-------------------------------

Log Entry : 04/11/2016 12:11.43.3692
  :
  :< ERROR [MENU.ASPX.CS]:> El procedimiento o la funci?n 'ENVIOAPP_SPS_MENU_PERFIL' esperaba el par?metro '@ID_PERFIL', que no se ha especificado.
-------------------------------

Log Entry : 04/11/2016 12:19.33.0717
  :
  :< ERROR [MENU.ASPX.CS]:> El procedimiento o la funci?n 'ENVIOAPP_SPS_MENU_PERFIL' esperaba el par?metro '@ID_PERFIL', que no se ha especificado.
-------------------------------

Log Entry : 04/11/2016 13:12.59.8662
  :
  :< ERROR [MENU.ASPX.CS]:> El procedimiento o la funci?n 'ENVIOAPP_SPS_MENU_PERFIL' esperaba el par?metro '@ID_PERFIL', que no se ha especificado.
-------------------------------

Log Entry : 04/11/2016 15:03.10.1998
  :
  :< ERROR [MENU.ASPX.CS]:> El procedimiento o la funci?n 'ENVIOAPP_SPS_MENU_PERFIL' esperaba el par?metro '@ID_PERFIL', que no se ha especificado.
-------------------------------

Log Entry : 04/11/2016 15:47.05.4074
  :
  :< ERROR [MENU.ASPX.CS]:> El procedimiento o la funci?n 'ENVIOAPP_SPS_MENU_PERFIL' esperaba el par?metro '@ID_PERFIL', que no se ha especificado.
-------------------------------

Log Entry : 04/11/2016 16:06.40.8222
  :
  :< ERROR [MENU.ASPX.CS]:> El procedimiento o la funci?n 'ENVIOAPP_SPS_MENU_PERFIL' esperaba el par?metro '@ID_PERFIL', que no se ha especificado.
-------------------------------

Log Entry : 04/11/2016 16:28.26.1600
  :
  :< ERROR [MENU.ASPX.CS]:> El procedimiento o la funci?n 'ENVIOAPP_SPS_MENU_PERFIL' esperaba el par?metro '@ID_PERFIL', que no se ha especificado.
-------------------------------

Log Entry : 04/11/2016 16:28.26.1730
  :
  :< ERROR [MENU.ASPX.CS]:> El procedimiento o la funci?n 'ENVIOAPP_SPS_MENU_PERFIL' esperaba el par?metro '@ID_PERFIL', que no se ha especificado.
-------------------------------

Log Entry : 04/11/2016 16:28.26.1840
  :
  :< ERROR [MENU.ASPX.CS]:> El procedimiento o la funci?n 'ENVIOAPP_SPS_MENU_PERFIL' esperaba el par?metro '@ID_PERFIL', que no se ha especificado.
-------------------------------

Log Entry : 04/11/2016 16:28.26.1960
  :
  :< ERROR [MENU.ASPX.CS]:> El procedimiento o la funci?n 'ENVIOAPP_SPS_MENU_PERFIL' esperaba el par?metro '@ID_PERFIL', que no se ha especificado.
-------------------------------

Log Entry : 04/11/2016 16:28.26.2580
  :
  :< ERROR [MENU.ASPX.CS]:> El procedimiento o la funci?n 'ENVIOAPP_SPS_MENU_PERFIL' esperaba el par?metro '@ID_PERFIL', que no se ha especificado.
-------------------------------

Log Entry : 04/11/2016 17:24.08.1680
  :
  :< ERROR [MENU.ASPX.CS]:> El procedimiento o la funci?n 'ENVIOAPP_SPS_MENU_PERFIL' esperaba el par?metro '@ID_PERFIL', que no se ha especificado.
-------------------------------

Log Entry : 04/11/2016 17:43.24.5776
  :
  :< ERROR [MENU.ASPX.CS]:> El procedimiento o la funci?n 'ENVIOAPP_SPS_MENU_PERFIL' esperaba el par?metro '@ID_PERFIL', que no se ha especificado.
-------------------------------

Log Entry : 04/11/2016 17:43.24.5877
  :
  :< ERROR [MENU.ASPX.CS]:> El procedimiento o la funci?n 'ENVIOAPP_SPS_MENU_PERFIL' esperaba el par?metro '@ID_PERFIL', que no se ha especificado.
-------------------------------

Log Entry : 04/11/2016 17:43.24.5967
  :
  :< ERROR [MENU.ASPX.CS]:> El procedimiento o la funci?n 'ENVIOAPP_SPS_MENU_PERFIL' esperaba el par?metro '@ID_PERFIL', que no se ha especificado.
-------------------------------

Log Entry : 04/11/2016 17:49.04.6928
  :
  :< ERROR [MENU.ASPX.CS]:> El procedimiento o la funci?n 'ENVIOAPP_SPS_MENU_PERFIL' esperaba el par?metro '@ID_PERFIL', que no se ha especificado.
-------------------------------

Log Entry : 04/11/2016 17:49.04.6998
  :
  :< ERROR [MENU.ASPX.CS]:> El procedimiento o la funci?n 'ENVIOAPP_SPS_MENU_PERFIL' esperaba el par?metro '@ID_PERFIL', que no se ha especificado.
-------------------------------

Log Entry : 04/11/2016 17:49.04.7398
  :
  :< ERROR [MENU.ASPX.CS]:> El procedimiento o la funci?n 'ENVIOAPP_SPS_MENU_PERFIL' esperaba el par?metro '@ID_PERFIL', que no se ha especificado.
-------------------------------

Log Entry : 04/11/2016 17:50.12.2163
  :
  :< ERROR [MENU.ASPX.CS]:> El procedimiento o la funci?n 'ENVIOAPP_SPS_MENU_PERFIL' esperaba el par?metro '@ID_PERFIL', que no se ha especificado.
-------------------------------

Log Entry : 04/11/2016 18:21.57.6833
  :
  :< ERROR [MENU.ASPX.CS]:> El procedimiento o la funci?n 'ENVIOAPP_SPS_MENU_PERFIL' esperaba el par?metro '@ID_PERFIL', que no se ha especificado.
-------------------------------

Log Entry : 04/11/2016 18:21.57.6943
  :
  :< ERROR [MENU.ASPX.CS]:> El procedimiento o la funci?n 'ENVIOAPP_SPS_MENU_PERFIL' esperaba el par?metro '@ID_PERFIL', que no se ha especificado.
-------------------------------

Log Entry : 04/11/2016 18:21.57.7054
  :
  :< ERROR [MENU.ASPX.CS]:> El procedimiento o la funci?n 'ENVIOAPP_SPS_MENU_PERFIL' esperaba el par?metro '@ID_PERFIL', que no se ha especificado.
-------------------------------

Log Entry : 04/11/2016 18:44.55.3423
  :
  :< ERROR [MENU.ASPX.CS]:> El procedimiento o la funci?n 'ENVIOAPP_SPS_MENU_PERFIL' esperaba el par?metro '@ID_PERFIL', que no se ha especificado.
-------------------------------

Log Entry : 04/11/2016 18:44.55.3509
  :
  :< ERROR [MENU.ASPX.CS]:> El procedimiento o la funci?n 'ENVIOAPP_SPS_MENU_PERFIL' esperaba el par?metro '@ID_PERFIL', que no se ha especificado.
-------------------------------

Log Entry : 04/11/2016 18:44.55.3668
  :
  :< ERROR [MENU.ASPX.CS]:> El procedimiento o la funci?n 'ENVIOAPP_SPS_MENU_PERFIL' esperaba el par?metro '@ID_PERFIL', que no se ha especificado.
-------------------------------

Log Entry : 04/11/2016 18:44.55.3806
  :
  :< ERROR [MENU.ASPX.CS]:> El procedimiento o la funci?n 'ENVIOAPP_SPS_MENU_PERFIL' esperaba el par?metro '@ID_PERFIL', que no se ha especificado.
-------------------------------

Log Entry : 04/11/2016 18:50.52.7704
  :
  :< ERROR [MENU.ASPX.CS]:> El procedimiento o la funci?n 'ENVIOAPP_SPS_MENU_PERFIL' esperaba el par?metro '@ID_PERFIL', que no se ha especificado.
-------------------------------

Log Entry : 04/11/2016 18:50.52.8045
  :
  :< ERROR [MENU.ASPX.CS]:> El procedimiento o la funci?n 'ENVIOAPP_SPS_MENU_PERFIL' esperaba el par?metro '@ID_PERFIL', que no se ha especificado.
-------------------------------

Log Entry : 04/11/2016 18:50.52.8055
  :
  :< ERROR [MENU.ASPX.CS]:> El procedimiento o la funci?n 'ENVIOAPP_SPS_MENU_PERFIL' esperaba el par?metro '@ID_PERFIL', que no se ha especificado.
-------------------------------

Log Entry : 04/11/2016 18:50.52.8055
  :
  :< ERROR [MENU.ASPX.CS]:> El procedimiento o la funci?n 'ENVIOAPP_SPS_MENU_PERFIL' esperaba el par?metro '@ID_PERFIL', que no se ha especificado.
-------------------------------

Log Entry : 04/11/2016 18:50.52.8125
  :
  :< ERROR [MENU.ASPX.CS]:> El procedimiento o la funci?n 'ENVIOAPP_SPS_MENU_PERFIL' esperaba el par?metro '@ID_PERFIL', que no se ha especificado.
-------------------------------
