
Log Entry : 12/29/2015 22:04.17.0515
  :
  :< ERROR [Default.aspx.CS]:> Subproceso anulado.
-------------------------------

Log Entry : 12/29/2015 22:36.12.4114
  :
  :< ERROR [Default.aspx.CS]:> Subproceso anulado.
-------------------------------

Log Entry : 12/29/2015 22:38.00.0917
  :
  :< ERROR [Default.aspx.CS]:> Subproceso anulado.
-------------------------------

Log Entry : 12/29/2015 22:48.22.4551
  :
  :< ERROR [Default.aspx.CS]:> Subproceso anulado.
-------------------------------

Log Entry : 12/29/2015 23:31.49.2193
  :
  :< ERROR [Default.aspx.CS]:> Subproceso anulado.
-------------------------------

Log Entry : 12/29/2015 23:34.02.3391
  :
  :< ERROR [Default.aspx.CS]:> Subproceso anulado.
-------------------------------

Log Entry : 12/29/2015 23:35.42.7060
  :
  :< ERROR [Default.aspx.CS]:> Subproceso anulado.
-------------------------------

Log Entry : 12/29/2015 23:42.12.6237
  :
  :< ERROR [Default.aspx.CS]:> Subproceso anulado.
-------------------------------

Log Entry : 12/29/2015 23:48.25.7245
  :
  :< ERROR [Default.aspx.CS]:> Subproceso anulado.
-------------------------------
